[
    {
        "productName": "Shampoo",
        "price": "100"
    },
    {
        "productName": "Laptop",
        "price": "50000"
    },
    {
        "productName": "Mobile",
        "price": "10000"
    },
    {
        "productName": "Biscuit",
        "price": "10"
    },
    {
        "productName": "Chocolate",
        "price": "50"
    }
]